#OTU ID	Sample1	amni	ferra	orni
1	3756	0	0	36918
2	940	9412	0	0
3	480	4606	20	1
4	345	3549	200	1
5	1066	10275	94	5
6	174	0	0	2000
7	3	26	0	14
8	1	6	0	1
9	2	0	0	1
10	1	10	0	0
11	25	50	69	208
12	125	998	0	28
13	1	1	0	1
14	2	0	0	16
15	1	0	0	0
16	3	0	0	44
17	5	2	4	39
18	24	0	0	221
19	11	0	0	37
20	3	0	0	63
21	2	0	0	5
22	2	16	5	26
23	3	0	0	23
24	2	0	0	28
25	2	0	0	36
26	9	6	6	49
27	18	3	3	237
28	3	0	0	23
29	15	182	0	0
30	2	31	0	0
31	11	147	4	11
32	2	0	0	1
33	1	1	0	0
34	1	3	0	0
35	2	0	0	8
36	2	22	0	0
37	2	28	13	29
38	1	1	0	1
39	1	11	0	0
40	11	112	0	1
41	6	7	7	22
42	5	0	0	25
43	7	1	3	49
44	3	4	0	4
45	7	74	0	0
46	2	0	0	4
47	6	0	0	25
48	4	47	3	1
49	1	14	0	0
50	2	5	2	3
51	1	3	1	7
52	8	7	40	88
53	1	0	0	5
54	3	25	1	4
55	6	58	0	0
56	3	0	0	22
57	7	3	0	64
58	2	2	0	29
59	4	0	1	39
60	2	0	3	13
61	1	0	0	4
62	1	2	0	0
63	4	29	7	18
64	1	0	0	7
65	5	15	0	28
66	4	25	0	1
67	1	0	0	2
68	3	22	205	4
69	2	0	0	30
70	1	0	0	0
71	1	8	0	0
72	1	0	0	1
73	4	0	0	18
74	1	3	0	8
75	2	0	0	2
76	1	0	3	30
77	1	0	0	0
78	1	0	0	8
79	2	12	4	2
80	1	0	0	7
81	1	33	0	0
82	1	0	0	25
83	1	0	0	7
84	1	0	0	2
85	1	0	1	31
86	1	0	0	7
87	1	3	0	0
88	1	0	0	1
89	1	0	0	2
90	2	6	1	7
91	1	1	0	2
92	1	0	0	1
93	1	0	0	21
94	1	1	0	1
95	1	4	0	0
96	2	19	2	7
97	2	2	7	11
98	1	0	0	1
99	1	0	0	10
100	1	1	13	14
101	2	0	0	20
102	1	0	2	26
103	1	0	0	5
104	1	1	0	34
105	1	4	1	4
106	1	0	0	0
107	1	0	0	1
108	1	20	0	0
109	1	0	0	24
110	1	0	0	16
111	1	10	0	0
112	3	52	1	0
113	1	3	0	43
114	1	0	0	16
115	1	0	0	0
116	1	6	0	0
117	1	12	0	0
118	2	4	0	0
119	1	0	0	15
120	1	4	0	0
121	1	25	2	6
122	1	0	0	2
123	1	9	0	1
124	1	0	3	12
125	1	0	1	3
126	1	0	10	2
127	1	19	1	0
128	1	0	0	1
129	1	0	0	0
130	1	0	0	0
131	0	8	0	0
132	0	5	0	1
133	0	1	0	0
134	0	16	0	0
135	0	2	1	26
136	0	1	0	0
137	0	4	0	0
138	0	1	12	1
139	0	7	0	0
140	0	1	0	0
141	0	10	0	0
142	0	3	0	0
143	0	6	0	0
144	0	1	0	1
145	0	1	0	0
146	0	1	0	2
147	0	2	1	1
148	0	1	1	0
149	0	9	0	1
150	0	4	0	0
151	0	2	8	0
152	0	4	2	0
153	0	5	1	1
154	0	1	0	0
155	0	1	0	0
156	0	1	1	0
157	0	1	0	4
158	0	1	0	0
159	0	1	0	0
160	0	5	0	0
161	0	1	0	1
162	0	2	1	0
163	0	1	0	0
164	0	1	0	0
165	0	3	1	0
166	0	1	1	0
167	0	1	0	0
168	0	3	0	0
169	0	1	0	0
170	0	2	0	1
171	0	1	0	0
172	0	1	0	0
173	0	2	0	0
174	0	1	0	0
175	0	5	0	0
176	0	3	0	0
177	0	1	1	0
178	0	2	0	2
179	0	2	0	0
180	0	2	1	0
181	0	9	0	0
182	0	1	0	0
183	0	7	54	1
184	0	1	1	0
185	0	1	0	0
186	0	1	0	0
187	0	1	0	0
188	0	1	0	6
189	0	1	0	0
190	0	5	3	0
191	0	3	2	0
192	0	1	0	0
193	0	1	0	0
194	0	1	0	0
195	0	1	2	1
196	0	2	0	1
197	0	2	0	0
198	0	2	1	0
199	0	1	0	0
200	0	1	0	0
201	0	1	0	0
202	0	2	0	0
203	0	1	0	0
204	0	1	0	0
205	0	1	0	0
206	0	1	0	0
207	0	1	0	0
208	0	2	18	0
209	0	1	1	0
210	0	1	0	0
211	0	2	0	0
212	0	1	0	0
213	0	2	0	0
214	0	1	0	0
215	0	1	0	0
216	0	1	0	0
217	0	1	0	0
218	0	1	0	1
219	0	2	12	1
220	0	1	0	4
221	0	1	0	0
222	0	1	2	0
223	0	1	0	0
224	0	1	0	4
225	0	1	0	1
226	0	1	0	0
227	0	1	0	1
228	0	1	0	0
229	0	1	0	0
230	0	2	1	0
231	0	1	0	0
232	0	1	0	0
233	0	1	97	0
234	0	1	0	0
235	0	1	0	0
236	0	1	0	2
237	0	1	2	0
238	0	1	0	1
239	0	1	0	1
240	0	1	1	0
241	0	1	0	0
242	0	1	1	10
243	0	1	0	0
244	0	1	0	0
245	0	0	8	0
246	0	0	20	0
247	0	0	1	0
248	0	0	1	0
249	0	0	55	0
250	0	0	4	0
251	0	0	2	0
252	0	0	2	0
253	0	0	4	0
254	0	0	3	1
255	0	0	1	0
256	0	0	18	0
257	0	0	1	0
258	0	0	4	0
259	0	0	4	0
260	0	0	6	0
261	0	0	2	4
262	0	0	7	0
263	0	0	2	5
264	0	0	1	0
265	0	0	14	2
266	0	0	8	0
267	0	0	2	0
268	0	0	1	0
269	0	0	1	0
270	0	0	6	0
271	0	0	2	0
272	0	0	1	1
273	0	0	1	0
274	0	0	1	0
275	0	0	2	0
276	0	0	1	0
277	0	0	2	0
278	0	0	2	0
279	0	0	1	0
280	0	0	1	0
281	0	0	6	0
282	0	0	1	3
283	0	0	1	0
284	0	0	2	1
285	0	0	1	0
286	0	0	2	0
287	0	0	2	0
288	0	0	1	0
289	0	0	1	0
290	0	0	2	0
291	0	0	1	1
292	0	0	1	0
293	0	0	1	0
294	0	0	1	0
295	0	0	1	0
296	0	0	1	0
297	0	0	1	2
298	0	0	1	1
299	0	0	1	0
300	0	0	1	1
301	0	0	2	8
302	0	0	3	0
303	0	0	1	0
304	0	0	1	0
305	0	0	1	0
306	0	0	1	0
307	0	0	1	0
308	0	0	2	0
309	0	0	2	1
310	0	0	1	0
311	0	0	1	0
312	0	0	1	1
313	0	0	1	2
314	0	0	1	0
315	0	0	1	0
316	0	0	1	1
317	0	0	1	0
318	0	0	1	0
319	0	0	1	0
320	0	0	1	5
321	0	0	0	10
322	0	0	0	1
323	0	0	0	2
324	0	0	0	1
325	0	0	0	1
326	0	0	0	40
327	0	0	0	1
328	0	0	0	1
329	0	0	0	1
330	0	0	0	2
331	0	0	0	6
332	0	0	0	2
333	0	0	0	3
334	0	0	0	1
335	0	0	0	1
336	0	0	0	1
337	0	0	0	3
338	0	0	0	1
339	0	0	0	1
340	0	0	0	3
341	0	0	0	2
342	0	0	0	1
343	0	0	0	3
344	0	0	0	5
345	0	0	0	6
346	0	0	0	1
347	0	0	0	1
348	0	0	0	2
349	0	0	0	2
350	0	0	0	6
351	0	0	0	8
352	0	0	0	1
353	0	0	0	1
354	0	0	0	1
355	0	0	0	2
356	0	0	0	2
357	0	0	0	6
358	0	0	0	4
359	0	0	0	1
360	0	0	0	1
361	0	0	0	1
362	0	0	0	1
363	0	0	0	2
364	0	0	0	3
365	0	0	0	3
366	0	0	0	2
367	0	0	0	1
368	0	0	0	1
369	0	0	0	4
370	0	0	0	2
371	0	0	0	1
372	0	0	0	1
373	0	0	0	2
374	0	0	0	2
375	0	0	0	1
376	0	0	0	1
377	0	0	0	1
378	0	0	0	2
379	0	0	0	1
380	0	0	0	2
381	0	0	0	2
382	0	0	0	1
383	0	0	0	1
384	0	0	0	1
385	0	0	0	1
386	0	0	0	1
387	0	0	0	3
388	0	0	0	3
389	0	0	0	1
390	0	0	0	1
391	0	0	0	1
392	0	0	0	1
393	0	0	0	1
394	0	0	0	2
395	0	0	0	2
396	0	0	0	1
397	0	0	0	1
398	0	0	0	2
399	0	0	0	3
400	0	0	0	1
401	0	0	0	1
402	0	0	0	2
403	0	0	0	1
404	0	0	0	1
405	0	0	0	4
406	0	0	0	1
407	0	0	0	1
408	0	0	0	1
409	0	0	0	1
410	0	0	0	1
411	0	0	0	2
412	0	0	0	1
413	0	0	0	1
414	0	0	0	2
415	0	0	0	1
416	0	0	0	1
417	0	0	0	2
418	0	0	0	1
419	0	0	0	2
420	0	0	0	1
421	0	0	0	1
422	0	0	0	2
423	0	0	0	1
424	0	0	0	1
425	0	0	0	1
426	0	0	0	2
427	0	0	0	3
428	0	0	0	1
429	0	0	0	1
430	0	0	0	1
431	0	0	0	1
432	0	0	0	1
433	0	0	0	1
434	0	0	0	1
435	0	0	0	1
436	0	0	0	1
437	0	0	0	1
438	0	0	0	2
439	0	0	0	1
440	0	0	0	1
441	0	0	0	1
442	0	0	0	1